{"level":"error","message":"ConnectPromise error","timestamp":"12:29:26"}
{"level":"error","message":"meterRead cannot connect","timestamp":"12:29:26"}
{"message":"connect ETIMEDOUT 192.168.0.2:502","stack":"Error: connect ETIMEDOUT 192.168.0.2:502\n    at Object.exports._errnoException (util.js:907:11)\n    at exports._exceptionWithHostPort (util.js:930:20)\n    at TCPConnectWrap.afterConnect [as oncomplete] (net.js:1077:14)","code":"ETIMEDOUT","errno":"ETIMEDOUT","syscall":"connect","address":"192.168.0.2","port":502,"level":"error","timestamp":"12:29:26"}
{"level":"error","message":"ConnectPromise error","timestamp":"12:29:34"}
{"level":"error","message":"meterRead cannot connect","timestamp":"12:29:34"}
{"message":"connect ETIMEDOUT 192.168.0.2:502","stack":"Error: connect ETIMEDOUT 192.168.0.2:502\n    at Object.exports._errnoException (util.js:907:11)\n    at exports._exceptionWithHostPort (util.js:930:20)\n    at TCPConnectWrap.afterConnect [as oncomplete] (net.js:1077:14)","code":"ETIMEDOUT","errno":"ETIMEDOUT","syscall":"connect","address":"192.168.0.2","port":502,"level":"error","timestamp":"12:29:34"}
{"level":"error","message":"ConnectPromise error","timestamp":"12:29:42"}
{"level":"error","message":"meterRead cannot connect","timestamp":"12:29:42"}
{"message":"connect ETIMEDOUT 192.168.0.2:502","stack":"Error: connect ETIMEDOUT 192.168.0.2:502\n    at Object.exports._errnoException (util.js:907:11)\n    at exports._exceptionWithHostPort (util.js:930:20)\n    at TCPConnectWrap.afterConnect [as oncomplete] (net.js:1077:14)","code":"ETIMEDOUT","errno":"ETIMEDOUT","syscall":"connect","address":"192.168.0.2","port":502,"level":"error","timestamp":"12:29:42"}
{"level":"error","message":"ConnectPromise error","timestamp":"12:29:50"}
{"level":"error","message":"meterRead cannot connect","timestamp":"12:29:50"}
{"message":"connect ETIMEDOUT 192.168.0.2:502","stack":"Error: connect ETIMEDOUT 192.168.0.2:502\n    at Object.exports._errnoException (util.js:907:11)\n    at exports._exceptionWithHostPort (util.js:930:20)\n    at TCPConnectWrap.afterConnect [as oncomplete] (net.js:1077:14)","code":"ETIMEDOUT","errno":"ETIMEDOUT","syscall":"connect","address":"192.168.0.2","port":502,"level":"error","timestamp":"12:29:50"}
{"level":"error","message":"ConnectPromise error","timestamp":"12:29:58"}
{"level":"error","message":"meterRead cannot connect","timestamp":"12:29:58"}
{"message":"connect ETIMEDOUT 192.168.0.2:502","stack":"Error: connect ETIMEDOUT 192.168.0.2:502\n    at Object.exports._errnoException (util.js:907:11)\n    at exports._exceptionWithHostPort (util.js:930:20)\n    at TCPConnectWrap.afterConnect [as oncomplete] (net.js:1077:14)","code":"ETIMEDOUT","errno":"ETIMEDOUT","syscall":"connect","address":"192.168.0.2","port":502,"level":"error","timestamp":"12:29:58"}
{"level":"info","message":"Modbus Connected!","timestamp":"12:31:16"}
{"level":"info","message":"Received data from modbus","timestamp":"12:31:19"}
{"level":"info","message":"Modbus Connected!","timestamp":"12:31:22"}
{"level":"info","message":"Received data from modbus","timestamp":"12:31:22"}
{"level":"info","message":"Modbus Connected!","timestamp":"12:31:29"}
{"level":"info","message":"Received data from modbus","timestamp":"12:31:32"}
{"level":"info","message":"Modbus Connected!","timestamp":"12:34:50"}
{"level":"info","message":"Received data from modbus","timestamp":"12:34:50"}
{"level":"info","message":"Modbus Connected!","timestamp":"12:34:58"}
{"level":"info","message":"Received data from modbus","timestamp":"12:34:58"}
{"level":"info","message":"Modbus Connected!","timestamp":"12:35:05"}
{"level":"info","message":"Received data from modbus","timestamp":"12:35:07"}
{"level":"info","message":"Modbus Connected!","timestamp":"12:35:20"}
{"level":"info","message":"Received data from modbus","timestamp":"12:35:21"}
{"level":"info","message":"Modbus Connected!","timestamp":"12:35:28"}
{"level":"info","message":"Received data from modbus","timestamp":"12:35:29"}
{"level":"info","message":"Modbus Connected!","timestamp":"12:35:36"}
{"level":"info","message":"Received data from modbus","timestamp":"12:35:37"}
{"level":"info","message":"Modbus Connected!","timestamp":"12:35:44"}
{"level":"info","message":"Received data from modbus","timestamp":"12:35:45"}
{"level":"info","message":"Modbus Connected!","timestamp":"12:35:52"}
{"level":"info","message":"Received data from modbus","timestamp":"12:35:52"}
{"level":"info","message":"Modbus Connected!","timestamp":"12:36:05"}
{"level":"info","message":"Received data from modbus","timestamp":"12:36:07"}
{"level":"info","message":"Modbus Connected!","timestamp":"12:36:13"}
{"level":"info","message":"Received data from modbus","timestamp":"12:36:14"}
{"level":"info","message":"Modbus Connected!","timestamp":"12:36:21"}
{"level":"info","message":"Received data from modbus","timestamp":"12:36:22"}
{"level":"info","message":"Modbus Connected!","timestamp":"12:36:29"}
{"level":"info","message":"Received data from modbus","timestamp":"12:36:30"}
{"level":"info","message":"Modbus Connected!","timestamp":"12:36:37"}
{"level":"info","message":"Received data from modbus","timestamp":"12:36:38"}
{"level":"info","message":"Modbus Connected!","timestamp":"12:36:45"}
{"level":"info","message":"Received data from modbus","timestamp":"12:36:46"}
{"level":"info","message":"Modbus Connected!","timestamp":"12:36:53"}
{"level":"info","message":"Received data from modbus","timestamp":"12:36:54"}
{"level":"info","message":"Modbus Connected!","timestamp":"12:37:01"}
{"level":"info","message":"Received data from modbus","timestamp":"12:37:02"}
{"level":"info","message":"Modbus Connected!","timestamp":"12:37:09"}
{"level":"info","message":"Received data from modbus","timestamp":"12:37:11"}
{"level":"info","message":"Modbus Connected!","timestamp":"12:37:17"}
{"level":"info","message":"Received data from modbus","timestamp":"12:37:18"}
{"level":"info","message":"Modbus Connected!","timestamp":"12:37:25"}
{"level":"info","message":"Received data from modbus","timestamp":"12:37:26"}
{"level":"info","message":"Modbus Connected!","timestamp":"12:37:58"}
{"level":"info","message":"Received data from modbus","timestamp":"12:37:58"}
{"level":"info","message":"Modbus Connected!","timestamp":"12:38:07"}
{"level":"info","message":"Received data from modbus","timestamp":"12:38:08"}
{"level":"info","message":"Modbus Connected!","timestamp":"12:38:15"}
{"level":"info","message":"Received data from modbus","timestamp":"12:38:16"}
